How to use SpatialSablefishAssessment in a MSE | SpatialSablefishAssessment
…
## else get derived quantities
mle_report = EM$report(first_MLE$par)
## save in a named list so we can use the get_multiple accessors
mod_lst = list()
mod_lst[["OM"]] = OM_report
mod_lst[["EM"]] = mle_report
## you can skip this part if you want to look at the
## harvest control work
## do a bunch of model comparisons
# get likelihoods
nlls = get_multiple_nlls(mle_ls = mod_lst, run_labels = names(mod_lst))
nll_wider = nlls %>% pivot_wider(id_cols = observations, names_from = label, values_from = negloglike) %>% mutate(diff = abs(OM - EM))
print(nll_wider, n = 24)

## # A tibble: 29 x 4
##    observations                               OM         EM    diff
##    <chr>                                   <dbl>      <dbl>   <dbl>
##  1 fishery-ll-age_comp                   14917.  14911.      6.35  
##  2 fishery-trwl-male_length_comp         13551.  13549.      2.43  
##  3 fishery-trwl-female_length_comp       15183.  15179.      3.76  
##  4 srv-Domestic-ll_index                   214.    214.      0.437 
##  5 srv-Japanese-ll_index                     0       0       0     
##  6 fishery-ll_index                          0       0       0     
##  7 srv-Domestic-ll-age_comp              19864.  19848.     16.0   
##  8 srv-Domestic-ll-male_length_comp      17912.  17913.      0.818 
##  9 srv-Domestic-ll-female_length_comp    20164.  20160.      4.86  
## 10 srv-Japanese-ll-age_comp                  0       0       0     
## 11 srv-Japanese-ll-male_length_comp          0       0       0     
## 12 srv-Japanese-ll-female_length_comp        0       0       0     
## 13 srv-GOA-trwl-age_comp                     0       0       0     
## 14 srv-GOA-trwl-male_length_comp             0       0       0     
## 15 srv-GOA-trwl-female_length_comp           0       0       0     
## 16 fishery-ll-male_length_comp           13085.  13083.      1.50  
## 17 fishery-ll-female_length_comp         14916.  14915.      0.997 
## 18 srv-GOA-trwl-index                        0       0       0     
## 19 Historic-Japanese-Fishery-index           0       0       0     
## 20 Historic-Japanese-Fishery-length_comp     0       0       0     
## 21 fishery-ll-catch_Sum_of_squares           0       0.0095  0.0095
## 22 fishery-trwlcatch_Sum_of_squares          0       0.0118  0.0118
## 23 Recruitment-penalty                      27.6    29.0     1.34  
## 24 Longline_F_penalty                       35.9    36.8     0.838 
## # i 5 more rows
…
